…
``` r
library(coronaR)
```

### Create the data with the COVID mortality information

``` r
today <- Sys.Date() ## note: you can change the date, to rebuild plots retrospectively
data_COVID <- prepare_data_ECDC(path_save_data = "~/Downloads/COVID19",
                                date_of_report = today)
#> The source of the COVID data have been stored in~/Downloads/COVID19/COVID-19-geographic-disbtribution-worldwide-2020-04-12.xlsx!
#> Warning in countrycode::countrycode(.data$iso2c, origin = "iso2c", destination = "continent"): Some values were not matched unambiguously: XK
data_COVID
#> # A tibble: 10,332 x 9
#>    country iso2c continent date_report date_report_last cases deaths_daily
#>    <chr>   <chr> <fct>     <date>      <date>           <dbl>        <dbl>
#>  1 Afghan… AF    Asia      2019-12-31  2020-04-12           0            0
#>  2 Afghan… AF    Asia      2020-01-01  2020-04-12           0            0
#>  3 Afghan… AF    Asia      2020-01-02  2020-04-12           0            0
#>  4 Afghan… AF    Asia      2020-01-03  2020-04-12           0            0
#>  5 Afghan… AF    Asia      2020-01-04  2020-04-12           0            0
#>  6 Afghan… AF    Asia      2020-01-05  2020-04-12           0            0
#>  7 Afghan… AF    Asia      2020-01-06  2020-04-12           0            0
#>  8 Afghan… AF    Asia      2020-01-07  2020-04-12           0            0
#>  9 Afghan… AF    Asia      2020-01-08  2020-04-12           0            0
#> 10 Afghan… AF    Asia      2020-01-09  2020-04-12           0            0
#> # … with 10,322 more rows, and 2 more variables: deaths_cumul <dbl>,
#> #   date_first_10_cumul_deaths <date>
…
``` r
  data_COVID[data_COVID$country == "France" & data_COVID$date_report == "2020-04-04", "deaths_daily"] <- 1120
  data_COVID[data_COVID$country == "Belgium" & data_COVID$date_report == "2020-04-08", "deaths_daily"] <- 162
  data_COVID[data_COVID$country == "Belgium" & data_COVID$date_report == "2020-04-11", "deaths_daily"] <- 325
```

### Create the data with the baseline mortality information

``` r
data_baseline_mortality <- prepare_data_WB() ## the data do sometimes change from day to day!
#> Downloading fresh data from World Bank, be patient...
data_baseline_mortality
#> # A tibble: 147 x 9
#>    country iso2c year_mortality total_death_year total_death_day
#>    <chr>   <chr>          <dbl>            <dbl>           <dbl>
#>  1 Afghan… AF              2018          238758.           654. 
#>  2 Albania AL              2018           22639.            62.0
#>  3 Algeria DZ              2018          199149.           546. 
#>  4 Angola  AO              2018          252332.           691. 
#>  5 Argent… AR              2018          338559.           928. 
#>  6 Armenia AM              2018           29096.            79.7
#>  7 Austra… AU              2018          157391.           431. 
#>  8 Austria AT              2018           83985.           230. 
#>  9 Azerba… AZ              2018           57651.           158. 
#> 10 Bangla… BD              2018          892138.          2444. 
#> # … with 137 more rows, and 4 more variables: total_death_year_world <dbl>,
#> #   total_death_day_world <dbl>, country_pop <dbl>, world_pop <dbl>
```
…
## More advanced usage

### Do your own plot

The workhorse function that lead to tidy longitudinal series is
`merge_datasets()`. You can for example use it like that:

``` r
full_data <- merge_datasets(data_ECDC = data_COVID,
                            data_WB = data_baseline_mortality,
                            type = "daily",
                            baseline = "country",
                            select = "worst_day")
full_data
#> # A tibble: 8,235 x 24
#>    country continent date_report date_report_last cases deaths_daily
#>    <chr>   <fct>     <date>      <date>           <dbl>        <dbl>
#>  1 Afghan… Asia      2020-04-12  2020-04-12          34            3
#>  2 Afghan… Asia      2020-04-11  2020-04-12          37            0
#>  3 Afghan… Asia      2020-04-10  2020-04-12          61            1
#>  4 Afghan… Asia      2020-04-09  2020-04-12          56            3
#>  5 Afghan… Asia      2020-04-08  2020-04-12          30            4
#>  6 Afghan… Asia      2020-04-07  2020-04-12          38            0
#>  7 Afghan… Asia      2020-04-06  2020-04-12          29            2
#>  8 Afghan… Asia      2020-04-05  2020-04-12          35            1
#>  9 Afghan… Asia      2020-04-04  2020-04-12           0            0
#> 10 Afghan… Asia      2020-04-03  2020-04-12          43            0
#> # … with 8,225 more rows, and 18 more variables: deaths_cumul <dbl>,
#> #   date_first_10_cumul_deaths <date>, year_mortality <dbl>,
#> #   total_death_year <dbl>, total_death_day <dbl>,
#> #   total_death_year_world <dbl>, total_death_day_world <dbl>,
#> #   country_pop <dbl>, world_pop <dbl>,
#> #   days_since_first_10_cumul_deaths <drtn>,
#> #   extra_mortality_daily_country <dbl>, extra_mortality_cumul_country <dbl>,
#> #   country_weight <dbl>, extra_mortality_daily_world <dbl>,
#> #   extra_mortality_cumul_world <dbl>, extra_mortality <dbl>, date <date>,
…
